idSolictud,tipoServicio,duracion,prioridad
6,computo,75,3
3,almacenamiento,21,3
9,almacenamiento,95,1
4,computo,42,3
1,almacenamiento,44,1
8,almacenamiento,62,2
8,almacenamiento,62,2
8,almacenamiento,62,2
7,almacenamiento,73,1
8,almacenamiento,93,1
9,computo,44,2
1,computo,32,1
3,computo,59,1
8,almacenamiento,62,2
8,almacenamiento,62,2
3,computo,98,3
4,almacenamiento,93,2
4,almacenamiento,56,2
5,almacenamiento,75,2
6,almacenamiento,93,2
10,almacenamiento,99,2
1,computo,32,1
1,computo,56,2
10,almacenamiento,38,1
1,computo,32,1
8,computo,87,2
3,computo,42,3
2,computo,51,1
5,almacenamiento,21,3
10,computo,28,3
10,almacenamiento,91,2
4,almacenamiento,42,3
3,almacenamiento,14,2
10,computo,28,10
1,computo,32,1
7,almacenamiento,8,2
10,computo,28,10
3,computo,83,2
6,almacenamiento,47,2
3,almacenamiento,91,2
6,computo,56,2
5,almacenamiento,8,3
6,computo,56,2
1,computo,83,1
2,computo,47,1
8,computo,11,2
4,computo,47,2
2,almacenamiento,69,3
4,almacenamiento,72,3
9,computo,3,2